 765; 765; 765; 765; 765; 765; 765; 765; 765; 765; 765; 765; 765; 765; 765; 765; 765; 765; 765; 765; 765; 765; 765; 765; 765; 765; 765; 765; 765; 765; 765; 765; 765; 765; 765; 765; 765; 765; 765; 765; 765; 765; 765; 765; 765; 765; 765; 765; 765; 765; 765; 765; 765; 765; 765; 765; 765; 765; 765; 765; 765; 765; 765; 765; 765; 765; 765; 765; 765; 765; 765; 765; 765; 765; 765; 765; 765; 765; 765; 765; 765; 765; 765; 765; 765; 765; 765; 765; 765; 765; 765; 765; 765; 765; 765; 765; 765; 765; 765; 765
 765; 765; 762; 765; 765; 765; 765; 765; 765; 765; 765; 765; 765; 765; 765; 765; 765; 765; 765; 765; 765; 765; 765; 765; 765; 765; 765; 765; 765; 765; 765; 765; 765; 765; 765; 765; 765; 765; 765; 765; 765; 765; 765; 765; 765; 765; 765; 765; 765; 765; 765; 765; 765; 765; 765; 765; 765; 765; 765; 765; 765; 765; 765; 765; 765; 765; 765; 765; 765; 765; 765; 765; 765; 765; 765; 765; 765; 765; 765; 765; 765; 765; 765; 765; 765; 765; 765; 765; 765; 765; 765; 765; 765; 765; 765; 765; 765; 765; 762; 765
 765; 765; 765; 765; 765; 765; 765; 765; 765; 765; 765; 765; 765; 765; 765; 765; 765; 765; 765; 765; 765; 765; 765; 765; 765; 765; 765; 765; 765; 765; 765; 765; 765; 765; 765; 765; 765; 765; 765; 765; 765; 765; 765; 765; 765; 765; 765; 765; 765; 765; 765; 765; 765; 765; 765; 765; 765; 765; 765; 765; 765; 765; 765; 765; 765; 765; 765; 765; 765; 765; 765; 765; 765; 765; 765; 765; 765; 765; 765; 765; 765; 765; 765; 765; 765; 765; 765; 765; 765; 765; 765; 765; 765; 765; 765; 762; 765; 765; 765; 765
 765; 765; 765; 765; 765; 765; 762; 762; 762; 762; 762; 762; 762; 762; 762; 762; 762; 762; 762; 762; 762; 762; 762; 762; 762; 762; 762; 762; 762; 762; 762; 762; 762; 765; 765; 765; 765; 765; 765; 765; 765; 765; 765; 765; 765; 765; 765; 765; 765; 765; 765; 765; 765; 765; 765; 765; 765; 765; 765; 765; 765; 765; 765; 765; 765; 765; 765; 765; 765; 765; 765; 765; 765; 765; 765; 765; 765; 765; 765; 765; 765; 765; 765; 765; 765; 765; 765; 765; 765; 765; 765; 765; 765; 765; 762; 765; 765; 765; 765; 765
 765; 765; 765; 765; 765; 765; 765; 765; 765; 765; 765; 765; 765; 765; 765; 765; 765; 765; 765; 765; 765; 765; 765; 765; 765; 765; 765; 765; 765; 765; 765; 765; 765; 765; 765; 765; 765; 765; 765; 765; 765; 765; 765; 765; 765; 765; 765; 765; 765; 765; 765; 765; 765; 765; 765; 765; 765; 765; 765; 765; 765; 765; 765; 765; 762; 762; 762; 762; 762; 762; 762; 762; 762; 762; 762; 762; 762; 762; 762; 762; 762; 762; 762; 762; 762; 762; 762; 762; 765; 765; 765; 765; 765; 765; 765; 762; 765; 765; 765; 765
 765; 765; 765; 765; 765; 765; 765; 765; 765; 765; 765; 765; 765; 765; 765; 765; 765; 765; 765; 765; 765; 765; 765; 765; 765; 765; 765; 765; 765; 765; 765; 765; 765; 765; 765; 765; 765; 765; 765; 765; 765; 765; 765; 765; 765; 765; 765; 765; 765; 765; 765; 765; 765; 765; 765; 765; 765; 765; 765; 765; 765; 765; 765; 765; 765; 765; 765; 765; 765; 765; 765; 765; 765; 765; 765; 765; 765; 765; 765; 765; 765; 765; 765; 765; 765; 765; 765; 765; 765; 765; 765; 765; 765; 765; 765; 765; 765; 762; 765; 765
 765; 765; 765; 765; 765; 765; 765; 762; 765; 762; 765; 765; 765; 765; 765; 765; 765; 765; 765; 765; 765; 765; 765; 765; 765; 765; 765; 765; 765; 765; 765; 765; 765; 765; 765; 765; 765; 765; 765; 765; 765; 765; 765; 765; 765; 765; 765; 765; 765; 765; 765; 765; 765; 765; 765; 765; 765; 765; 765; 765; 765; 765; 765; 765; 765; 765; 765; 765; 765; 765; 765; 765; 765; 765; 765; 765; 765; 765; 765; 765; 765; 765; 765; 765; 765; 765; 762; 765; 762; 765; 765; 765; 765; 762; 762; 765; 765; 762; 765; 765
 765; 765; 765; 765; 762; 765; 765; 762; 765; 765; 765; 765; 765; 765; 765; 765; 765; 765; 765; 765; 765; 765; 765; 765; 765; 765; 765; 765; 765; 765; 765; 765; 765; 765; 765; 765; 765; 765; 765; 765; 765; 765; 765; 765; 765; 765; 765; 765; 765; 765; 765; 765; 765; 765; 765; 765; 765; 765; 765; 765; 765; 765; 765; 765; 765; 765; 765; 765; 765; 765; 765; 765; 765; 765; 765; 765; 765; 765; 765; 765; 762; 765; 765; 762; 765; 765; 765; 765; 765; 765; 765; 762; 765; 765; 765; 765; 765; 762; 765; 765
 765; 765; 765; 765; 765; 762; 762; 765; 765; 765; 765; 765; 765; 765; 765; 765; 765; 765; 765; 765; 765; 765; 765; 765; 765; 765; 765; 765; 765; 765; 765; 765; 765; 765; 765; 765; 765; 765; 765; 765; 765; 765; 765; 765; 765; 765; 765; 765; 765; 765; 765; 765; 765; 765; 765; 765; 765; 765; 765; 765; 765; 765; 765; 765; 765; 765; 765; 765; 765; 765; 765; 765; 765; 765; 765; 765; 765; 765; 765; 765; 762; 765; 765; 765; 765; 765; 765; 765; 765; 762; 765; 765; 765; 765; 765; 762; 762; 765; 765; 765
 765; 765; 765; 765; 765; 762; 765; 762; 765; 765; 765; 765; 765; 765; 765; 765; 765; 765; 762; 762; 762; 762; 762; 762; 762; 762; 762; 762; 762; 762; 762; 762; 762; 762; 762; 762; 762; 762; 762; 762; 762; 762; 762; 762; 762; 762; 762; 762; 762; 762; 762; 762; 762; 762; 762; 762; 762; 762; 762; 762; 762; 762; 762; 762; 762; 762; 762; 762; 762; 762; 762; 762; 762; 762; 762; 765; 765; 765; 765; 765; 765; 765; 765; 765; 765; 765; 762; 765; 765; 765; 765; 765; 765; 765; 765; 762; 765; 765; 765; 765
 765; 765; 765; 765; 765; 765; 765; 765; 765; 762; 765; 765; 762; 765; 765; 765; 765; 765; 765; 765; 762; 762; 762; 762; 762; 762; 762; 762; 762; 762; 762; 762; 762; 762; 762; 762; 762; 762; 762; 762; 762; 762; 762; 762; 762; 762; 762; 762; 762; 762; 762; 762; 762; 762; 762; 762; 762; 762; 762; 762; 762; 762; 762; 762; 762; 765; 765; 765; 765; 765; 765; 765; 765; 762; 762; 765; 765; 765; 765; 765; 765; 765; 765; 765; 762; 765; 765; 762; 765; 765; 765; 765; 765; 765; 765; 762; 765; 765; 765; 765
 765; 765; 765; 765; 765; 765; 765; 762; 765; 765; 762; 765; 765; 765; 765; 765; 765; 762; 765; 765; 765; 765; 765; 765; 765; 765; 765; 765; 765; 765; 765; 765; 765; 765; 765; 765; 765; 765; 765; 765; 765; 765; 765; 765; 765; 765; 765; 765; 765; 765; 765; 765; 765; 765; 765; 765; 765; 765; 765; 765; 765; 765; 765; 765; 765; 765; 765; 765; 765; 762; 762; 762; 765; 762; 762; 762; 765; 765; 765; 762; 765; 765; 762; 762; 765; 765; 765; 762; 765; 762; 762; 765; 762; 765; 765; 762; 765; 765; 765; 765
 765; 765; 765; 765; 765; 765; 765; 762; 765; 765; 765; 765; 765; 762; 765; 765; 765; 765; 762; 765; 765; 765; 765; 765; 765; 762; 762; 762; 762; 762; 762; 762; 765; 765; 765; 765; 765; 765; 765; 765; 765; 765; 765; 765; 765; 765; 765; 765; 765; 765; 765; 765; 765; 765; 765; 765; 765; 765; 765; 765; 765; 765; 765; 765; 765; 765; 765; 765; 765; 765; 765; 765; 765; 765; 765; 765; 765; 765; 765; 765; 765; 765; 765; 765; 762; 765; 765; 765; 765; 765; 765; 762; 762; 765; 765; 762; 765; 765; 765; 765
 765; 765; 765; 765; 765; 765; 765; 762; 765; 765; 765; 765; 765; 765; 765; 765; 765; 765; 765; 765; 765; 762; 765; 765; 765; 762; 765; 762; 762; 762; 762; 762; 762; 765; 765; 765; 765; 765; 765; 765; 765; 765; 765; 765; 765; 765; 765; 765; 765; 765; 765; 765; 765; 765; 765; 765; 765; 765; 765; 765; 765; 765; 765; 765; 765; 765; 765; 765; 765; 765; 765; 765; 765; 762; 765; 765; 762; 765; 765; 765; 765; 765; 765; 762; 765; 765; 765; 765; 765; 765; 765; 765; 765; 765; 765; 762; 765; 765; 765; 765
 765; 765; 765; 765; 765; 765; 765; 765; 765; 765; 765; 762; 765; 765; 765; 765; 765; 765; 765; 765; 765; 765; 765; 765; 765; 765; 765; 765; 765; 765; 765; 765; 765; 765; 765; 765; 765; 765; 765; 765; 765; 765; 765; 765; 765; 765; 765; 765; 765; 765; 765; 765; 765; 765; 765; 765; 765; 765; 765; 765; 765; 765; 765; 765; 765; 765; 765; 765; 765; 765; 765; 762; 765; 765; 765; 765; 765; 765; 762; 762; 765; 762; 762; 765; 762; 762; 765; 765; 765; 765; 765; 762; 765; 765; 765; 762; 765; 765; 765; 765
 765; 765; 765; 765; 765; 765; 765; 765; 765; 765; 765; 765; 765; 765; 765; 765; 765; 762; 762; 762; 765; 765; 765; 765; 765; 765; 762; 765; 765; 765; 765; 765; 762; 762; 762; 762; 762; 762; 762; 762; 762; 762; 762; 762; 762; 762; 762; 762; 762; 762; 762; 762; 762; 762; 762; 762; 762; 762; 762; 765; 762; 762; 765; 765; 765; 765; 765; 765; 765; 765; 765; 765; 762; 765; 765; 762; 765; 765; 765; 765; 765; 765; 765; 765; 765; 765; 765; 765; 765; 762; 765; 765; 765; 765; 765; 762; 765; 765; 765; 765
 765; 765; 765; 765; 765; 765; 765; 765; 765; 765; 765; 765; 765; 765; 765; 765; 765; 765; 765; 765; 765; 762; 762; 765; 762; 762; 765; 765; 765; 765; 765; 765; 765; 765; 765; 765; 765; 765; 765; 765; 765; 765; 765; 765; 765; 765; 765; 765; 765; 765; 765; 765; 765; 765; 765; 765; 765; 765; 765; 765; 762; 765; 765; 765; 765; 765; 765; 765; 765; 765; 765; 765; 762; 765; 765; 765; 765; 765; 765; 765; 762; 765; 762; 765; 765; 765; 765; 765; 765; 765; 765; 765; 765; 765; 765; 762; 762; 765; 765; 765
 765; 765; 765; 765; 765; 765; 765; 765; 765; 765; 762; 765; 765; 765; 765; 765; 765; 765; 765; 765; 765; 765; 762; 762; 762; 765; 762; 765; 765; 765; 765; 765; 765; 765; 765; 765; 765; 765; 765; 765; 765; 765; 765; 765; 765; 765; 765; 765; 765; 765; 765; 765; 765; 765; 765; 765; 765; 765; 765; 762; 765; 765; 765; 765; 765; 765; 762; 765; 765; 765; 765; 765; 765; 765; 765; 765; 765; 765; 765; 765; 765; 762; 765; 765; 765; 765; 762; 765; 765; 765; 762; 765; 765; 765; 765; 762; 762; 765; 765; 765
 765; 765; 765; 765; 765; 765; 765; 765; 765; 765; 765; 765; 765; 765; 765; 765; 765; 765; 765; 765; 765; 765; 765; 765; 765; 765; 765; 765; 762; 765; 762; 765; 765; 765; 765; 765; 765; 765; 765; 765; 765; 765; 765; 765; 765; 765; 765; 765; 765; 765; 762; 762; 765; 762; 765; 765; 765; 765; 765; 765; 765; 765; 765; 765; 765; 762; 762; 762; 765; 765; 765; 762; 765; 765; 765; 765; 762; 765; 765; 765; 765; 765; 765; 765; 765; 765; 765; 765; 765; 762; 762; 765; 765; 765; 765; 762; 762; 765; 765; 765
 765; 765; 765; 765; 765; 765; 765; 765; 765; 765; 765; 765; 765; 765; 762; 765; 765; 765; 765; 762; 762; 765; 765; 765; 765; 765; 765; 765; 762; 765; 762; 765; 765; 765; 765; 765; 765; 765; 765; 762; 762; 762; 762; 762; 762; 762; 762; 765; 765; 765; 762; 765; 765; 765; 762; 765; 765; 765; 765; 762; 765; 765; 762; 765; 765; 765; 765; 765; 765; 765; 765; 765; 765; 765; 765; 765; 765; 765; 765; 762; 765; 765; 762; 765; 765; 765; 765; 762; 765; 762; 762; 765; 765; 765; 765; 762; 762; 765; 765; 765
 765; 765; 765; 765; 765; 765; 765; 765; 765; 765; 765; 765; 765; 765; 762; 762; 762; 765; 765; 765; 765; 762; 765; 765; 765; 765; 765; 762; 765; 765; 765; 765; 765; 765; 765; 765; 765; 765; 765; 765; 762; 765; 765; 765; 765; 755; 765; 765; 765; 765; 765; 765; 765; 765; 765; 765; 765; 765; 765; 765; 765; 765; 765; 765; 765; 765; 765; 765; 765; 765; 765; 765; 765; 765; 765; 765; 765; 762; 765; 765; 762; 765; 765; 765; 765; 765; 765; 762; 765; 762; 762; 765; 765; 765; 765; 762; 762; 765; 765; 765
 765; 765; 765; 765; 765; 765; 765; 765; 765; 765; 765; 765; 765; 762; 765; 765; 765; 765; 765; 765; 765; 765; 765; 765; 762; 765; 765; 765; 765; 765; 765; 765; 765; 765; 765; 765; 765; 765; 765; 765; 765; 759; 718; 752; 739; 739; 749; 759; 765; 765; 765; 765; 765; 765; 765; 765; 762; 762; 765; 765; 765; 762; 765; 762; 762; 765; 762; 765; 762; 762; 762; 762; 762; 765; 765; 765; 765; 765; 765; 762; 765; 765; 765; 765; 765; 765; 765; 762; 765; 762; 762; 765; 765; 765; 765; 762; 762; 765; 765; 765
 765; 765; 765; 765; 765; 765; 765; 765; 765; 765; 765; 765; 765; 765; 765; 765; 762; 765; 765; 765; 765; 765; 765; 765; 765; 765; 762; 765; 765; 765; 765; 765; 765; 765; 765; 762; 765; 765; 762; 707; 691; 670; 582; 635; 640; 627; 629; 731; 753; 759; 765; 765; 765; 765; 765; 765; 765; 765; 762; 765; 765; 765; 765; 765; 765; 765; 765; 765; 765; 765; 762; 762; 762; 765; 762; 762; 765; 765; 765; 765; 765; 765; 765; 765; 765; 762; 765; 765; 765; 762; 762; 765; 765; 765; 765; 762; 762; 765; 765; 765
 765; 765; 765; 765; 765; 765; 765; 765; 765; 765; 765; 765; 765; 765; 765; 765; 765; 765; 765; 765; 765; 765; 762; 765; 765; 765; 765; 765; 765; 765; 765; 765; 765; 765; 765; 765; 717; 694; 688; 593; 556; 548; 541; 540; 538; 543; 550; 596; 563; 744; 746; 765; 762; 765; 765; 765; 765; 765; 762; 762; 765; 765; 765; 765; 765; 765; 762; 765; 765; 765; 765; 762; 765; 762; 765; 765; 765; 765; 765; 765; 765; 765; 765; 765; 765; 765; 765; 765; 765; 762; 762; 765; 765; 765; 765; 762; 762; 765; 765; 765
 765; 765; 765; 765; 765; 765; 765; 765; 765; 765; 765; 765; 765; 765; 765; 762; 765; 762; 765; 765; 765; 762; 762; 762; 765; 765; 762; 762; 765; 765; 765; 765; 765; 765; 762; 765; 568; 553; 549; 544; 542; 525; 525; 515; 523; 525; 539; 516; 569; 568; 577; 713; 712; 750; 756; 760; 765; 765; 762; 762; 765; 765; 762; 765; 765; 765; 765; 765; 765; 765; 765; 765; 765; 765; 765; 762; 762; 765; 765; 765; 765; 765; 765; 765; 762; 762; 765; 765; 765; 762; 762; 765; 765; 765; 765; 762; 762; 765; 765; 765
 765; 765; 765; 765; 765; 765; 765; 765; 765; 765; 765; 765; 765; 765; 765; 762; 765; 765; 765; 762; 765; 765; 765; 765; 762; 765; 765; 762; 765; 765; 765; 765; 762; 715; 650; 597; 555; 547; 543; 542; 538; 531; 521; 519; 518; 519; 510; 532; 521; 521; 548; 567; 576; 676; 678; 748; 765; 765; 765; 765; 765; 765; 765; 765; 765; 765; 765; 765; 765; 765; 765; 765; 765; 765; 765; 765; 765; 765; 765; 762; 765; 765; 765; 765; 762; 762; 765; 765; 765; 762; 762; 765; 765; 765; 765; 762; 762; 765; 765; 765
 765; 765; 765; 765; 765; 765; 765; 765; 765; 765; 765; 765; 765; 765; 765; 765; 765; 765; 765; 765; 765; 765; 765; 765; 765; 765; 765; 765; 765; 765; 765; 723; 652; 612; 555; 546; 543; 540; 539; 539; 535; 534; 524; 525; 519; 514; 511; 505; 520; 520; 532; 540; 549; 546; 564; 741; 688; 750; 749; 762; 765; 765; 765; 765; 765; 765; 765; 765; 765; 765; 765; 765; 765; 762; 762; 765; 765; 762; 765; 765; 765; 765; 765; 765; 765; 762; 765; 765; 765; 762; 762; 765; 765; 765; 765; 762; 762; 765; 765; 765
 765; 765; 765; 765; 765; 765; 765; 765; 765; 765; 765; 765; 765; 765; 765; 765; 765; 765; 765; 765; 765; 765; 765; 765; 765; 765; 765; 765; 765; 765; 734; 616; 559; 543; 538; 538; 541; 544; 542; 542; 544; 533; 542; 531; 530; 517; 510; 507; 511; 512; 515; 525; 517; 530; 543; 552; 567; 654; 729; 743; 756; 765; 765; 765; 765; 765; 762; 762; 765; 762; 765; 762; 765; 765; 762; 765; 765; 762; 765; 765; 765; 765; 765; 762; 762; 762; 765; 765; 765; 762; 762; 765; 765; 765; 765; 762; 762; 765; 765; 765
 765; 765; 765; 765; 765; 765; 765; 765; 765; 765; 765; 765; 765; 765; 765; 765; 765; 765; 765; 765; 765; 765; 765; 765; 762; 765; 765; 765; 762; 747; 603; 554; 538; 533; 531; 533; 541; 546; 542; 550; 547; 551; 541; 545; 529; 520; 509; 502; 503; 503; 502; 493; 507; 513; 532; 540; 542; 544; 653; 718; 742; 765; 765; 765; 765; 765; 762; 765; 765; 765; 765; 765; 765; 762; 765; 765; 765; 765; 765; 765; 765; 765; 765; 762; 762; 762; 765; 765; 765; 762; 762; 765; 765; 765; 765; 762; 762; 765; 765; 765
 765; 765; 765; 765; 765; 765; 765; 765; 765; 765; 765; 765; 765; 765; 765; 765; 765; 765; 765; 765; 765; 765; 765; 765; 765; 765; 765; 762; 765; 597; 551; 541; 532; 529; 529; 531; 535; 538; 539; 544; 554; 546; 544; 538; 528; 515; 510; 504; 500; 500; 488; 492; 492; 506; 517; 529; 539; 550; 567; 639; 711; 758; 765; 765; 765; 765; 765; 765; 765; 762; 765; 762; 762; 765; 765; 765; 765; 762; 762; 762; 762; 765; 765; 762; 762; 762; 765; 765; 765; 762; 762; 765; 765; 765; 765; 762; 762; 765; 765; 765
 765; 765; 765; 765; 765; 765; 765; 765; 765; 765; 765; 765; 765; 765; 765; 765; 765; 765; 765; 765; 765; 765; 765; 765; 765; 762; 765; 765; 732; 604; 549; 531; 535; 530; 528; 525; 528; 540; 534; 538; 545; 541; 534; 528; 523; 511; 506; 497; 493; 493; 477; 479; 483; 494; 514; 531; 544; 560; 562; 558; 623; 710; 765; 765; 765; 765; 765; 765; 762; 765; 762; 762; 765; 765; 762; 765; 762; 765; 765; 765; 765; 765; 765; 762; 762; 762; 765; 765; 765; 762; 762; 765; 765; 765; 765; 762; 762; 765; 765; 765
 765; 765; 765; 765; 765; 765; 765; 765; 765; 765; 765; 765; 765; 765; 765; 765; 765; 765; 765; 765; 765; 765; 765; 765; 762; 762; 762; 765; 575; 558; 540; 525; 522; 522; 518; 519; 524; 530; 530; 532; 536; 534; 527; 524; 521; 511; 504; 489; 483; 483; 467; 470; 481; 498; 519; 534; 551; 555; 557; 558; 560; 560; 765; 762; 765; 765; 762; 765; 765; 762; 762; 765; 765; 765; 762; 762; 765; 765; 765; 765; 765; 765; 765; 762; 762; 762; 765; 765; 765; 762; 762; 765; 765; 765; 765; 762; 762; 765; 765; 765
 765; 765; 765; 765; 765; 765; 765; 765; 765; 765; 765; 765; 765; 765; 765; 765; 765; 765; 762; 765; 765; 765; 765; 765; 762; 762; 762; 765; 574; 556; 535; 522; 519; 517; 520; 522; 520; 521; 524; 526; 526; 527; 522; 522; 520; 510; 508; 492; 481; 481; 463; 468; 482; 502; 514; 533; 544; 551; 552; 561; 558; 559; 568; 716; 765; 765; 765; 765; 765; 765; 765; 765; 765; 765; 765; 765; 762; 765; 762; 765; 765; 762; 765; 765; 762; 762; 765; 765; 762; 765; 762; 762; 765; 765; 762; 762; 762; 762; 765; 765
 765; 765; 765; 765; 765; 765; 765; 765; 765; 765; 765; 765; 765; 765; 765; 765; 765; 765; 765; 765; 765; 765; 765; 765; 765; 765; 765; 743; 571; 547; 532; 537; 519; 516; 517; 520; 520; 517; 518; 521; 525; 525; 520; 522; 524; 516; 515; 501; 492; 492; 464; 468; 478; 488; 503; 519; 537; 543; 550; 556; 557; 563; 568; 613; 719; 761; 765; 765; 765; 765; 765; 765; 765; 762; 765; 765; 765; 765; 765; 765; 765; 762; 765; 765; 762; 762; 765; 765; 762; 765; 762; 762; 765; 765; 762; 762; 762; 762; 765; 765
 765; 765; 765; 765; 765; 765; 765; 765; 765; 765; 765; 765; 765; 765; 765; 765; 765; 765; 765; 765; 765; 765; 765; 762; 765; 762; 765; 724; 586; 552; 542; 529; 519; 513; 511; 513; 511; 510; 512; 516; 520; 523; 520; 524; 529; 522; 513; 505; 494; 494; 468; 472; 473; 477; 495; 515; 528; 538; 550; 549; 562; 564; 565; 566; 617; 745; 758; 762; 765; 765; 765; 765; 765; 765; 765; 765; 765; 765; 765; 765; 765; 762; 765; 765; 762; 762; 765; 765; 762; 765; 762; 762; 765; 765; 762; 762; 762; 762; 765; 765
 765; 765; 765; 765; 765; 765; 765; 765; 765; 765; 765; 765; 765; 765; 765; 765; 765; 765; 765; 765; 765; 765; 765; 762; 765; 765; 762; 707; 587; 548; 535; 524; 516; 514; 514; 506; 497; 493; 503; 508; 513; 519; 518; 524; 528; 524; 518; 509; 503; 503; 475; 474; 467; 470; 488; 507; 521; 532; 534; 550; 560; 563; 562; 562; 603; 711; 728; 758; 762; 765; 765; 765; 762; 765; 765; 765; 762; 765; 762; 762; 765; 762; 765; 765; 762; 762; 765; 765; 762; 765; 762; 762; 765; 765; 762; 762; 762; 762; 765; 765
 765; 765; 765; 765; 765; 765; 765; 765; 765; 765; 765; 765; 765; 765; 765; 765; 765; 765; 765; 765; 765; 762; 765; 765; 765; 765; 765; 689; 584; 549; 525; 519; 512; 511; 505; 493; 487; 486; 495; 498; 506; 511; 512; 521; 526; 520; 523; 512; 503; 503; 476; 470; 464; 466; 478; 498; 514; 524; 529; 549; 554; 558; 557; 555; 554; 564; 606; 728; 747; 762; 765; 762; 765; 762; 765; 765; 765; 762; 762; 762; 765; 762; 765; 765; 762; 762; 765; 765; 762; 765; 762; 762; 765; 765; 762; 762; 762; 762; 765; 765
 765; 765; 765; 765; 765; 765; 765; 765; 765; 765; 765; 765; 765; 765; 765; 765; 765; 765; 765; 765; 765; 765; 765; 765; 765; 765; 765; 723; 624; 537; 524; 512; 505; 496; 490; 482; 480; 486; 490; 493; 501; 501; 509; 513; 521; 513; 521; 506; 493; 493; 469; 463; 455; 456; 469; 483; 500; 512; 532; 545; 547; 545; 547; 544; 549; 554; 601; 725; 729; 765; 762; 765; 765; 762; 765; 765; 765; 765; 762; 762; 765; 762; 765; 765; 762; 762; 765; 765; 762; 765; 762; 762; 765; 765; 762; 762; 762; 762; 765; 765
 765; 765; 765; 765; 765; 765; 765; 765; 765; 765; 765; 765; 765; 765; 765; 765; 765; 765; 765; 765; 765; 765; 765; 765; 765; 765; 765; 695; 609; 540; 520; 508; 501; 490; 484; 479; 472; 479; 479; 482; 482; 492; 491; 509; 507; 504; 505; 497; 479; 478; 461; 455; 449; 447; 459; 469; 481; 513; 526; 539; 536; 537; 540; 543; 546; 555; 559; 619; 730; 757; 762; 765; 765; 762; 765; 765; 762; 765; 762; 762; 765; 762; 765; 765; 762; 762; 765; 765; 762; 765; 762; 762; 765; 765; 762; 762; 762; 762; 765; 765
 765; 765; 765; 765; 765; 765; 765; 765; 765; 765; 765; 765; 765; 765; 765; 765; 765; 765; 765; 765; 765; 765; 762; 765; 765; 765; 765; 720; 562; 540; 514; 501; 497; 488; 482; 476; 468; 470; 470; 466; 474; 474; 485; 490; 492; 485; 482; 482; 472; 472; 452; 447; 446; 442; 455; 453; 467; 506; 529; 530; 533; 532; 534; 544; 552; 548; 555; 561; 632; 736; 765; 765; 765; 762; 765; 765; 765; 765; 762; 762; 765; 762; 765; 765; 762; 762; 765; 765; 762; 765; 762; 762; 765; 765; 762; 762; 762; 762; 765; 765
 765; 765; 765; 765; 765; 765; 765; 765; 765; 765; 765; 765; 765; 765; 765; 765; 765; 765; 765; 765; 765; 765; 765; 765; 765; 765; 765; 765; 554; 540; 511; 494; 485; 479; 476; 471; 465; 466; 466; 465; 463; 471; 469; 477; 472; 468; 467; 468; 462; 461; 439; 438; 438; 436; 449; 455; 481; 511; 522; 527; 533; 532; 533; 546; 541; 542; 538; 549; 551; 650; 765; 765; 762; 765; 765; 765; 765; 765; 762; 762; 765; 762; 765; 765; 762; 762; 765; 765; 762; 765; 762; 762; 765; 765; 762; 762; 762; 762; 765; 765
 765; 765; 765; 765; 765; 765; 765; 765; 765; 765; 765; 765; 765; 765; 765; 765; 765; 765; 765; 765; 765; 765; 765; 765; 765; 765; 765; 765; 765; 546; 517; 494; 482; 477; 472; 468; 463; 461; 460; 458; 460; 460; 459; 460; 462; 456; 454; 453; 447; 447; 432; 438; 441; 442; 436; 465; 494; 506; 517; 527; 525; 532; 533; 538; 536; 526; 536; 537; 544; 569; 656; 762; 765; 765; 762; 762; 765; 765; 762; 762; 765; 762; 765; 765; 762; 762; 765; 765; 762; 765; 762; 762; 765; 765; 762; 762; 762; 762; 765; 765
 765; 765; 765; 765; 765; 765; 765; 765; 765; 765; 765; 765; 765; 765; 765; 765; 765; 765; 765; 765; 765; 765; 765; 765; 765; 765; 762; 765; 765; 547; 520; 496; 483; 477; 474; 470; 463; 458; 453; 450; 453; 451; 452; 449; 453; 450; 444; 443; 435; 435; 432; 438; 447; 448; 458; 481; 494; 518; 519; 527; 530; 531; 535; 540; 531; 528; 528; 532; 533; 543; 561; 661; 765; 765; 765; 762; 765; 765; 762; 762; 765; 762; 765; 765; 762; 762; 765; 765; 762; 765; 762; 762; 765; 765; 762; 762; 762; 762; 765; 765
 765; 765; 765; 765; 765; 765; 765; 765; 765; 765; 765; 765; 765; 765; 765; 765; 765; 765; 765; 765; 765; 765; 765; 765; 765; 762; 765; 765; 765; 543; 516; 489; 479; 479; 474; 474; 468; 462; 458; 452; 451; 454; 449; 448; 450; 446; 437; 439; 433; 433; 435; 443; 449; 451; 472; 480; 512; 508; 531; 525; 533; 534; 539; 532; 529; 528; 529; 521; 524; 532; 543; 623; 765; 765; 762; 762; 765; 765; 762; 762; 765; 762; 765; 765; 762; 762; 765; 765; 762; 765; 762; 762; 765; 765; 762; 762; 762; 762; 765; 765
 765; 765; 765; 765; 765; 765; 765; 765; 765; 765; 765; 765; 765; 765; 765; 765; 765; 765; 765; 765; 765; 765; 765; 765; 765; 762; 765; 765; 765; 542; 519; 490; 479; 479; 473; 474; 470; 466; 460; 452; 449; 449; 452; 452; 456; 453; 441; 443; 445; 445; 453; 457; 453; 474; 480; 492; 500; 523; 527; 532; 529; 531; 532; 525; 527; 530; 521; 514; 517; 526; 531; 618; 765; 765; 765; 762; 765; 765; 762; 762; 765; 762; 765; 765; 762; 762; 765; 765; 762; 765; 762; 762; 765; 765; 762; 762; 762; 762; 765; 765
 765; 765; 765; 765; 765; 765; 765; 765; 765; 765; 765; 765; 765; 765; 765; 765; 765; 765; 765; 765; 765; 765; 765; 765; 765; 765; 765; 765; 765; 547; 511; 491; 476; 469; 475; 470; 472; 463; 455; 451; 452; 460; 456; 462; 467; 467; 456; 463; 454; 454; 463; 474; 478; 479; 485; 488; 498; 511; 520; 524; 528; 527; 522; 522; 522; 519; 515; 512; 516; 519; 527; 614; 765; 762; 765; 762; 765; 765; 762; 762; 765; 762; 765; 765; 762; 762; 765; 765; 762; 765; 762; 762; 765; 765; 762; 762; 762; 762; 765; 765
 765; 765; 765; 765; 765; 765; 765; 765; 765; 765; 765; 765; 765; 765; 765; 765; 765; 765; 765; 765; 765; 765; 765; 765; 765; 765; 765; 762; 765; 547; 514; 482; 461; 463; 455; 459; 460; 464; 463; 459; 472; 475; 478; 474; 482; 479; 481; 469; 473; 474; 487; 484; 494; 499; 501; 503; 506; 513; 515; 519; 524; 523; 520; 518; 518; 515; 515; 512; 517; 519; 524; 614; 765; 762; 765; 762; 765; 765; 762; 762; 765; 762; 765; 765; 762; 762; 765; 765; 762; 765; 762; 762; 765; 765; 762; 762; 762; 762; 765; 765
 765; 765; 765; 765; 765; 765; 765; 765; 765; 765; 765; 765; 765; 765; 765; 765; 765; 765; 765; 765; 765; 765; 765; 765; 765; 765; 765; 765; 765; 551; 508; 494; 455; 450; 453; 462; 469; 476; 480; 484; 487; 499; 485; 497; 500; 508; 501; 498; 489; 489; 500; 510; 502; 521; 510; 514; 515; 512; 511; 518; 525; 527; 527; 524; 521; 517; 518; 515; 517; 523; 525; 610; 762; 762; 765; 762; 765; 765; 762; 762; 765; 762; 765; 765; 762; 762; 765; 765; 762; 765; 762; 762; 765; 765; 762; 762; 762; 762; 765; 765
 765; 765; 765; 765; 765; 765; 765; 765; 765; 765; 765; 765; 765; 765; 765; 765; 765; 765; 765; 765; 765; 765; 765; 765; 765; 765; 765; 762; 765; 570; 522; 464; 454; 454; 459; 461; 472; 486; 492; 491; 507; 501; 513; 509; 525; 525; 525; 508; 522; 522; 519; 518; 536; 519; 514; 519; 517; 509; 509; 519; 528; 532; 537; 530; 529; 528; 525; 518; 520; 524; 526; 618; 762; 762; 765; 762; 765; 765; 762; 762; 765; 762; 765; 765; 762; 762; 765; 765; 762; 765; 762; 762; 765; 765; 762; 762; 762; 762; 765; 765
 765; 765; 765; 765; 765; 765; 765; 765; 765; 765; 765; 765; 765; 765; 765; 765; 765; 765; 765; 765; 765; 765; 765; 765; 765; 765; 765; 765; 608; 558; 513; 489; 457; 442; 459; 463; 474; 477; 486; 503; 513; 535; 531; 539; 531; 536; 536; 544; 531; 537; 535; 548; 531; 528; 522; 524; 520; 513; 510; 518; 526; 531; 540; 538; 538; 537; 530; 525; 527; 529; 528; 617; 762; 762; 765; 762; 765; 765; 762; 762; 765; 762; 765; 765; 762; 762; 765; 765; 762; 765; 762; 762; 765; 765; 762; 762; 762; 762; 765; 765
 765; 765; 765; 765; 765; 765; 765; 765; 765; 765; 765; 765; 765; 765; 765; 765; 765; 765; 765; 765; 765; 765; 765; 765; 765; 765; 765; 765; 736; 574; 526; 471; 456; 457; 448; 463; 465; 486; 495; 509; 534; 541; 559; 549; 553; 550; 557; 540; 540; 544; 549; 543; 546; 525; 528; 525; 521; 518; 517; 519; 524; 527; 530; 531; 532; 533; 526; 525; 531; 532; 528; 620; 762; 762; 765; 762; 765; 765; 762; 762; 765; 762; 765; 765; 762; 762; 765; 765; 762; 765; 762; 762; 765; 765; 762; 762; 762; 762; 765; 765
 765; 765; 765; 765; 765; 765; 765; 765; 765; 765; 765; 765; 765; 765; 765; 765; 765; 765; 765; 765; 765; 765; 765; 765; 765; 765; 765; 762; 740; 581; 517; 492; 463; 452; 447; 459; 464; 485; 501; 523; 541; 554; 559; 563; 559; 563; 553; 554; 547; 553; 557; 554; 535; 536; 535; 527; 518; 518; 517; 516; 519; 524; 523; 524; 522; 521; 520; 525; 530; 532; 532; 617; 762; 762; 765; 762; 765; 765; 762; 762; 765; 762; 765; 765; 762; 762; 765; 765; 762; 765; 762; 762; 765; 765; 762; 762; 762; 762; 765; 765
 765; 765; 765; 765; 765; 765; 765; 765; 765; 765; 765; 765; 765; 765; 765; 765; 765; 765; 765; 765; 765; 765; 765; 765; 765; 765; 765; 762; 739; 577; 538; 499; 488; 469; 461; 461; 469; 487; 498; 526; 549; 558; 565; 562; 560; 563; 559; 565; 563; 559; 564; 560; 550; 538; 541; 528; 521; 519; 519; 514; 515; 518; 518; 519; 519; 515; 516; 523; 531; 531; 536; 621; 762; 762; 765; 762; 765; 765; 762; 762; 765; 762; 765; 765; 762; 762; 765; 765; 762; 765; 762; 762; 765; 765; 762; 762; 762; 762; 765; 765
 765; 765; 765; 765; 765; 765; 765; 765; 765; 765; 765; 765; 765; 765; 765; 765; 765; 765; 765; 765; 765; 765; 765; 765; 765; 765; 765; 765; 742; 614; 549; 520; 487; 475; 460; 459; 466; 484; 499; 524; 542; 548; 556; 559; 558; 561; 562; 563; 565; 565; 563; 559; 553; 547; 541; 532; 528; 525; 521; 515; 514; 513; 507; 514; 514; 516; 523; 514; 529; 532; 547; 633; 762; 762; 765; 762; 765; 765; 762; 762; 765; 762; 765; 765; 762; 762; 765; 765; 762; 765; 762; 762; 765; 765; 762; 762; 762; 762; 765; 765
 765; 765; 765; 765; 765; 765; 765; 765; 765; 765; 765; 765; 765; 765; 765; 765; 765; 765; 765; 765; 765; 765; 765; 765; 765; 765; 765; 765; 754; 735; 571; 526; 492; 483; 462; 461; 461; 482; 492; 510; 523; 537; 546; 554; 554; 561; 559; 557; 556; 557; 554; 550; 546; 544; 540; 531; 529; 524; 517; 510; 511; 511; 507; 507; 507; 512; 514; 506; 521; 529; 578; 765; 762; 765; 765; 762; 765; 765; 762; 762; 765; 762; 765; 765; 762; 762; 765; 765; 762; 765; 762; 762; 765; 765; 762; 762; 762; 762; 765; 765
 765; 765; 765; 765; 765; 765; 765; 765; 765; 765; 765; 765; 765; 765; 765; 765; 765; 765; 765; 765; 765; 765; 765; 765; 765; 762; 765; 765; 765; 752; 576; 537; 499; 478; 462; 450; 454; 461; 490; 497; 514; 519; 541; 544; 552; 548; 547; 545; 547; 548; 545; 544; 543; 538; 536; 532; 525; 525; 510; 506; 504; 506; 503; 494; 498; 500; 501; 492; 513; 524; 582; 762; 765; 765; 765; 762; 765; 765; 762; 762; 765; 762; 765; 765; 762; 762; 765; 765; 762; 765; 762; 762; 765; 765; 762; 762; 762; 762; 765; 765
 765; 765; 765; 765; 765; 765; 765; 765; 765; 765; 765; 765; 765; 765; 765; 765; 765; 765; 765; 765; 765; 765; 765; 765; 765; 762; 765; 762; 765; 754; 631; 632; 512; 490; 468; 448; 441; 461; 478; 489; 500; 523; 526; 542; 535; 540; 540; 538; 545; 546; 544; 544; 544; 540; 540; 534; 532; 522; 516; 506; 507; 503; 503; 498; 498; 500; 488; 497; 516; 532; 625; 765; 765; 765; 765; 762; 765; 765; 762; 762; 765; 762; 765; 765; 762; 762; 765; 765; 762; 765; 762; 762; 765; 765; 762; 762; 762; 762; 765; 765
 765; 765; 765; 765; 765; 765; 765; 765; 765; 765; 765; 765; 765; 765; 765; 765; 765; 765; 765; 765; 765; 765; 765; 765; 762; 765; 765; 765; 762; 762; 752; 546; 524; 499; 471; 453; 448; 448; 458; 468; 494; 506; 512; 527; 537; 536; 536; 540; 548; 552; 551; 552; 553; 547; 546; 542; 534; 529; 519; 519; 510; 503; 500; 496; 501; 492; 487; 499; 520; 520; 753; 765; 765; 765; 765; 765; 765; 765; 762; 762; 765; 762; 765; 765; 762; 762; 765; 765; 762; 765; 762; 762; 765; 765; 762; 762; 762; 762; 765; 765
 765; 765; 765; 765; 765; 765; 765; 765; 765; 765; 765; 765; 765; 765; 765; 765; 765; 765; 765; 765; 765; 765; 765; 765; 765; 765; 765; 765; 765; 765; 759; 562; 542; 505; 491; 452; 447; 452; 451; 465; 483; 506; 514; 529; 535; 537; 533; 540; 552; 557; 557; 560; 561; 553; 553; 547; 543; 530; 526; 521; 512; 499; 492; 494; 492; 491; 484; 506; 517; 517; 756; 765; 765; 762; 765; 765; 765; 765; 762; 762; 765; 762; 765; 765; 762; 762; 765; 765; 762; 765; 762; 762; 765; 765; 762; 762; 762; 762; 765; 765
 765; 765; 765; 765; 765; 765; 765; 765; 765; 765; 765; 765; 765; 765; 765; 765; 765; 765; 765; 765; 765; 765; 765; 765; 765; 765; 762; 765; 765; 765; 762; 635; 553; 523; 491; 477; 461; 450; 450; 461; 482; 496; 509; 523; 536; 534; 531; 541; 553; 558; 559; 563; 563; 558; 557; 554; 544; 535; 524; 519; 505; 490; 486; 487; 488; 488; 492; 509; 521; 618; 762; 762; 765; 765; 762; 765; 762; 765; 762; 762; 765; 762; 765; 765; 762; 762; 765; 765; 762; 765; 762; 762; 765; 765; 762; 762; 762; 762; 765; 765
 765; 765; 765; 765; 765; 765; 765; 765; 765; 765; 765; 765; 765; 765; 765; 765; 765; 765; 765; 765; 765; 765; 765; 765; 765; 762; 765; 765; 765; 762; 762; 750; 577; 527; 508; 478; 465; 452; 448; 457; 462; 490; 501; 518; 533; 534; 533; 539; 549; 555; 562; 566; 563; 559; 556; 553; 547; 532; 520; 508; 496; 483; 477; 480; 482; 486; 493; 508; 521; 722; 765; 765; 765; 765; 765; 762; 765; 765; 762; 762; 765; 762; 765; 765; 762; 762; 765; 765; 762; 765; 762; 762; 765; 765; 762; 762; 762; 762; 765; 765
 765; 765; 765; 765; 765; 765; 765; 765; 765; 765; 765; 765; 765; 765; 765; 765; 765; 765; 765; 765; 765; 762; 765; 762; 765; 765; 765; 765; 765; 765; 765; 750; 609; 550; 513; 494; 471; 457; 460; 445; 478; 489; 501; 520; 528; 537; 539; 541; 544; 554; 558; 564; 560; 555; 552; 550; 545; 530; 513; 497; 487; 478; 474; 473; 475; 486; 495; 509; 527; 722; 765; 765; 765; 765; 765; 765; 765; 762; 762; 762; 765; 762; 765; 765; 762; 762; 765; 765; 762; 765; 762; 762; 765; 765; 762; 762; 762; 762; 765; 765
 765; 765; 765; 765; 765; 765; 765; 765; 765; 765; 765; 765; 765; 765; 765; 765; 765; 765; 765; 765; 765; 762; 765; 765; 765; 765; 765; 765; 765; 765; 765; 765; 741; 577; 527; 502; 489; 477; 456; 482; 479; 491; 508; 520; 532; 537; 538; 542; 547; 549; 555; 557; 558; 553; 552; 552; 544; 531; 511; 499; 488; 479; 472; 464; 468; 479; 496; 508; 531; 721; 765; 765; 765; 765; 765; 765; 762; 765; 765; 762; 765; 762; 765; 765; 762; 762; 765; 765; 762; 765; 762; 762; 765; 765; 762; 762; 762; 762; 765; 765
 765; 765; 765; 765; 765; 765; 765; 765; 765; 765; 765; 765; 765; 765; 765; 765; 765; 765; 765; 765; 765; 765; 762; 765; 765; 765; 765; 765; 765; 765; 765; 762; 751; 607; 535; 524; 505; 476; 496; 487; 486; 493; 507; 519; 527; 532; 534; 543; 546; 548; 549; 555; 554; 551; 550; 548; 541; 528; 511; 496; 486; 474; 462; 460; 462; 476; 492; 513; 620; 738; 765; 765; 765; 765; 765; 765; 765; 762; 765; 762; 765; 762; 765; 765; 762; 762; 765; 765; 762; 765; 762; 762; 765; 765; 762; 762; 762; 762; 765; 765
 765; 765; 765; 765; 765; 765; 765; 765; 765; 765; 765; 765; 765; 765; 765; 765; 765; 765; 765; 765; 765; 765; 765; 765; 765; 765; 765; 765; 765; 765; 765; 765; 762; 603; 563; 537; 527; 512; 510; 503; 497; 503; 502; 510; 519; 524; 529; 537; 542; 536; 539; 544; 548; 547; 542; 538; 531; 521; 504; 494; 481; 463; 457; 460; 468; 479; 501; 526; 684; 758; 765; 762; 765; 765; 765; 765; 762; 762; 765; 762; 765; 765; 765; 765; 765; 765; 765; 765; 765; 765; 765; 765; 765; 765; 765; 765; 765; 765; 765; 765
 765; 765; 765; 765; 765; 765; 765; 765; 765; 765; 765; 765; 765; 765; 765; 765; 765; 765; 765; 765; 765; 762; 762; 765; 765; 765; 765; 762; 765; 765; 765; 765; 765; 753; 611; 559; 524; 531; 524; 516; 513; 503; 508; 506; 515; 526; 531; 533; 529; 525; 524; 530; 536; 536; 532; 526; 524; 514; 503; 494; 479; 461; 456; 458; 469; 492; 516; 620; 722; 762; 762; 765; 762; 762; 765; 765; 765; 765; 765; 762; 765; 765; 765; 765; 765; 765; 765; 765; 765; 765; 765; 765; 765; 765; 765; 765; 765; 765; 765; 765
 765; 765; 765; 765; 765; 765; 765; 765; 765; 765; 765; 765; 765; 765; 765; 765; 765; 765; 765; 765; 765; 765; 765; 765; 765; 765; 765; 765; 765; 765; 765; 765; 765; 765; 741; 765; 557; 541; 533; 523; 515; 516; 509; 512; 517; 525; 526; 522; 521; 517; 518; 520; 525; 524; 517; 513; 512; 508; 497; 490; 480; 464; 463; 465; 479; 504; 517; 681; 765; 762; 765; 765; 765; 762; 765; 765; 765; 765; 762; 765; 765; 765; 765; 765; 765; 765; 765; 765; 765; 765; 765; 765; 765; 765; 765; 765; 765; 765; 765; 765
 765; 765; 765; 765; 765; 765; 765; 765; 765; 765; 765; 765; 765; 765; 765; 765; 765; 765; 762; 765; 765; 765; 765; 765; 765; 765; 765; 765; 762; 765; 765; 765; 765; 765; 765; 732; 644; 550; 540; 529; 524; 522; 522; 516; 514; 515; 515; 511; 513; 516; 521; 519; 515; 513; 510; 509; 510; 505; 496; 487; 480; 467; 467; 478; 495; 517; 527; 740; 762; 765; 765; 765; 765; 765; 765; 765; 765; 765; 765; 765; 765; 765; 765; 765; 765; 765; 765; 765; 765; 765; 765; 765; 765; 765; 765; 765; 765; 765; 765; 765
 765; 765; 765; 765; 765; 765; 765; 765; 765; 765; 765; 765; 765; 765; 765; 765; 765; 765; 765; 762; 765; 765; 765; 765; 765; 762; 765; 765; 765; 765; 765; 765; 765; 765; 765; 757; 720; 656; 549; 539; 527; 528; 523; 521; 513; 512; 505; 506; 509; 513; 512; 513; 511; 512; 510; 507; 503; 502; 490; 484; 478; 479; 480; 488; 508; 528; 685; 765; 765; 765; 765; 765; 765; 765; 765; 765; 765; 765; 765; 765; 762; 765; 765; 765; 765; 765; 765; 765; 765; 765; 765; 765; 765; 765; 765; 765; 765; 765; 765; 765
 765; 765; 765; 765; 765; 765; 765; 765; 765; 765; 765; 765; 765; 765; 765; 765; 765; 765; 765; 762; 765; 765; 765; 765; 762; 765; 765; 762; 762; 765; 765; 765; 765; 765; 762; 765; 747; 693; 567; 555; 550; 528; 539; 528; 527; 516; 510; 508; 510; 506; 505; 510; 512; 512; 510; 506; 506; 497; 492; 485; 486; 487; 489; 500; 514; 683; 726; 765; 765; 765; 765; 765; 765; 765; 762; 765; 762; 765; 765; 765; 762; 762; 765; 765; 765; 765; 765; 765; 765; 765; 765; 765; 765; 765; 765; 765; 765; 765; 765; 765
 765; 765; 765; 765; 765; 765; 765; 765; 765; 765; 765; 765; 765; 765; 765; 765; 762; 765; 765; 765; 765; 765; 762; 765; 765; 765; 765; 765; 765; 765; 765; 765; 762; 765; 765; 765; 762; 732; 688; 570; 549; 546; 537; 540; 532; 523; 517; 516; 511; 503; 503; 512; 514; 512; 510; 514; 511; 507; 496; 498; 497; 501; 506; 510; 527; 710; 745; 765; 765; 765; 765; 762; 765; 765; 762; 765; 765; 765; 762; 765; 765; 765; 765; 765; 765; 765; 765; 765; 765; 765; 765; 765; 765; 765; 765; 765; 765; 765; 765; 765
 765; 765; 765; 765; 765; 765; 765; 765; 765; 765; 765; 765; 765; 765; 765; 765; 765; 765; 762; 765; 765; 765; 765; 765; 765; 765; 765; 765; 765; 762; 765; 762; 765; 765; 765; 765; 765; 752; 712; 564; 548; 545; 542; 535; 532; 527; 521; 520; 517; 507; 507; 515; 523; 522; 521; 517; 522; 508; 507; 506; 513; 513; 513; 524; 530; 723; 753; 765; 765; 762; 765; 765; 765; 765; 765; 765; 765; 765; 765; 765; 765; 762; 765; 765; 765; 765; 765; 765; 765; 765; 765; 765; 765; 765; 765; 765; 765; 765; 765; 765
 765; 765; 765; 765; 765; 765; 765; 765; 765; 765; 765; 765; 765; 765; 765; 765; 765; 765; 765; 765; 765; 765; 765; 765; 762; 762; 765; 765; 762; 765; 762; 765; 765; 765; 765; 762; 765; 765; 730; 572; 553; 551; 544; 534; 526; 527; 522; 521; 521; 515; 514; 523; 532; 532; 532; 528; 520; 522; 513; 515; 513; 521; 529; 529; 559; 729; 762; 765; 765; 765; 765; 762; 765; 765; 765; 765; 765; 765; 765; 765; 762; 765; 762; 765; 765; 765; 765; 765; 765; 765; 765; 765; 765; 765; 765; 765; 765; 765; 765; 765
 765; 765; 765; 765; 765; 765; 765; 765; 765; 765; 765; 765; 765; 765; 765; 765; 765; 765; 765; 765; 765; 765; 765; 765; 765; 765; 765; 765; 765; 765; 765; 762; 762; 762; 762; 765; 762; 765; 757; 742; 578; 549; 548; 534; 534; 529; 526; 526; 527; 527; 527; 533; 539; 543; 545; 535; 533; 528; 530; 518; 524; 528; 533; 543; 604; 745; 765; 765; 765; 765; 765; 765; 765; 765; 762; 765; 765; 765; 765; 765; 765; 765; 765; 762; 765; 765; 765; 765; 765; 765; 765; 765; 765; 765; 765; 765; 765; 765; 765; 765
 765; 765; 765; 765; 765; 765; 765; 765; 765; 765; 765; 765; 765; 765; 765; 765; 765; 765; 765; 765; 765; 765; 762; 765; 765; 765; 765; 765; 765; 762; 762; 765; 765; 762; 765; 762; 765; 765; 765; 759; 739; 592; 543; 550; 538; 532; 536; 537; 537; 540; 543; 542; 546; 549; 551; 550; 545; 541; 530; 529; 529; 530; 532; 581; 734; 753; 765; 765; 765; 765; 765; 765; 762; 765; 765; 765; 765; 765; 765; 765; 762; 765; 765; 765; 765; 765; 765; 765; 765; 765; 765; 765; 765; 765; 765; 765; 765; 765; 765; 765
 765; 765; 765; 765; 765; 765; 765; 765; 765; 765; 765; 765; 765; 765; 765; 765; 765; 765; 762; 762; 765; 765; 765; 762; 762; 765; 765; 765; 765; 765; 765; 765; 762; 762; 765; 765; 765; 762; 762; 765; 753; 742; 615; 563; 545; 541; 547; 545; 542; 547; 550; 551; 551; 553; 554; 554; 552; 541; 535; 533; 531; 530; 534; 600; 757; 765; 765; 765; 762; 765; 765; 765; 765; 762; 765; 765; 765; 765; 765; 762; 765; 762; 765; 765; 765; 765; 765; 765; 765; 765; 765; 765; 765; 765; 765; 765; 765; 765; 765; 765
 765; 765; 765; 765; 765; 765; 765; 765; 765; 765; 765; 765; 765; 765; 765; 765; 765; 765; 765; 765; 765; 765; 765; 765; 765; 765; 765; 762; 762; 762; 765; 765; 765; 762; 765; 762; 765; 765; 765; 765; 765; 765; 759; 639; 582; 563; 560; 552; 550; 548; 553; 555; 558; 555; 557; 555; 555; 547; 538; 534; 531; 533; 575; 680; 760; 765; 765; 765; 765; 762; 765; 765; 762; 762; 765; 765; 765; 765; 765; 765; 765; 765; 762; 765; 765; 765; 765; 765; 765; 765; 765; 765; 765; 765; 765; 765; 765; 765; 765; 765
 765; 765; 765; 765; 765; 765; 765; 765; 765; 765; 765; 765; 762; 765; 765; 762; 765; 762; 765; 762; 765; 765; 762; 765; 762; 762; 765; 765; 762; 765; 765; 762; 765; 765; 762; 765; 762; 762; 765; 765; 762; 765; 765; 765; 668; 657; 656; 581; 563; 550; 556; 556; 558; 558; 560; 555; 554; 548; 539; 537; 537; 552; 627; 765; 765; 765; 762; 762; 765; 765; 765; 765; 765; 762; 765; 765; 765; 762; 762; 765; 765; 765; 765; 762; 765; 765; 765; 765; 765; 765; 765; 765; 765; 765; 765; 765; 765; 765; 765; 765
 765; 765; 765; 765; 765; 765; 765; 765; 765; 765; 765; 765; 765; 765; 765; 762; 762; 765; 762; 765; 765; 765; 765; 765; 765; 762; 765; 762; 762; 765; 765; 765; 762; 762; 762; 765; 765; 765; 765; 765; 765; 762; 765; 765; 765; 762; 762; 699; 691; 693; 688; 692; 688; 689; 687; 686; 686; 683; 679; 671; 665; 664; 687; 765; 765; 765; 765; 765; 765; 765; 765; 765; 765; 765; 765; 765; 762; 765; 762; 765; 765; 765; 765; 762; 765; 765; 765; 765; 765; 765; 765; 765; 765; 765; 765; 765; 765; 765; 765; 765
 765; 765; 765; 765; 765; 765; 765; 765; 765; 765; 765; 765; 765; 765; 765; 765; 765; 765; 765; 765; 765; 765; 765; 765; 765; 765; 762; 765; 765; 765; 762; 762; 765; 765; 765; 762; 765; 765; 765; 765; 765; 765; 765; 765; 765; 765; 765; 765; 765; 765; 765; 765; 765; 765; 765; 762; 765; 765; 765; 762; 762; 765; 765; 762; 762; 765; 765; 765; 762; 765; 765; 765; 765; 762; 762; 762; 765; 765; 765; 762; 765; 765; 762; 765; 765; 765; 765; 765; 765; 765; 765; 765; 765; 765; 765; 765; 765; 765; 765; 765
 765; 765; 765; 765; 765; 765; 765; 765; 765; 765; 765; 765; 765; 762; 765; 765; 765; 765; 765; 762; 765; 762; 765; 765; 765; 765; 765; 765; 765; 765; 765; 765; 762; 765; 765; 765; 765; 765; 765; 765; 762; 765; 765; 765; 765; 765; 765; 765; 765; 765; 765; 765; 765; 765; 765; 765; 762; 765; 762; 765; 765; 765; 765; 765; 765; 765; 765; 762; 762; 765; 765; 765; 765; 762; 765; 765; 765; 765; 765; 765; 765; 765; 765; 765; 765; 765; 765; 765; 765; 765; 765; 765; 765; 765; 765; 765; 765; 765; 765; 765
 765; 765; 765; 765; 765; 765; 765; 765; 765; 765; 762; 765; 762; 765; 762; 765; 765; 765; 765; 765; 765; 765; 765; 762; 765; 765; 765; 765; 765; 765; 765; 765; 762; 762; 765; 762; 762; 765; 765; 762; 765; 765; 765; 765; 765; 765; 765; 765; 765; 765; 765; 765; 765; 765; 765; 765; 765; 765; 765; 762; 762; 762; 765; 765; 765; 762; 765; 765; 765; 762; 765; 762; 765; 765; 765; 762; 765; 765; 765; 765; 765; 765; 765; 765; 765; 762; 765; 762; 765; 765; 765; 765; 765; 765; 765; 765; 765; 765; 765; 765
 765; 765; 765; 765; 765; 765; 765; 765; 765; 765; 765; 765; 765; 765; 765; 762; 762; 765; 765; 765; 765; 765; 762; 765; 765; 765; 765; 765; 765; 765; 765; 765; 765; 762; 765; 765; 762; 765; 765; 765; 765; 765; 765; 765; 765; 765; 765; 765; 765; 765; 765; 765; 765; 765; 765; 765; 765; 765; 765; 765; 765; 765; 762; 762; 765; 765; 765; 765; 765; 762; 765; 765; 765; 762; 762; 765; 765; 765; 762; 765; 765; 765; 765; 762; 762; 765; 762; 765; 765; 762; 765; 765; 765; 765; 765; 765; 765; 765; 765; 765
 765; 765; 765; 765; 765; 765; 765; 765; 765; 765; 765; 765; 765; 765; 765; 765; 762; 765; 765; 762; 765; 765; 765; 765; 765; 765; 765; 765; 765; 765; 762; 762; 765; 762; 765; 765; 765; 765; 765; 765; 765; 765; 765; 765; 765; 765; 765; 765; 765; 765; 765; 765; 765; 765; 765; 765; 765; 765; 765; 765; 765; 765; 765; 765; 765; 765; 765; 762; 765; 765; 762; 762; 765; 765; 765; 762; 762; 765; 765; 765; 765; 765; 765; 762; 765; 765; 765; 765; 765; 765; 765; 765; 765; 765; 765; 765; 765; 765; 765; 765
 765; 765; 765; 765; 765; 765; 765; 765; 762; 765; 765; 765; 765; 765; 765; 765; 765; 762; 765; 765; 762; 765; 765; 765; 762; 765; 762; 765; 765; 765; 765; 765; 765; 762; 765; 765; 765; 765; 765; 765; 765; 765; 765; 765; 765; 765; 765; 765; 765; 765; 765; 765; 765; 765; 765; 765; 765; 765; 765; 765; 765; 765; 765; 765; 765; 765; 765; 765; 765; 765; 765; 762; 765; 765; 762; 765; 765; 765; 762; 765; 765; 765; 765; 765; 765; 765; 765; 765; 765; 762; 765; 765; 765; 765; 765; 765; 765; 765; 765; 765
 765; 765; 765; 765; 765; 765; 765; 765; 762; 765; 762; 765; 765; 765; 765; 765; 765; 762; 765; 765; 765; 765; 765; 765; 762; 765; 765; 765; 765; 765; 765; 762; 765; 765; 765; 765; 765; 765; 765; 765; 765; 765; 765; 765; 765; 765; 765; 765; 765; 765; 765; 765; 765; 765; 765; 765; 765; 765; 765; 765; 765; 765; 765; 765; 765; 765; 765; 765; 765; 765; 765; 765; 762; 765; 765; 765; 765; 765; 765; 765; 765; 765; 765; 765; 765; 765; 765; 765; 765; 765; 765; 765; 765; 765; 765; 765; 765; 765; 765; 765
 765; 765; 765; 765; 765; 765; 765; 765; 765; 765; 765; 765; 765; 765; 765; 765; 765; 765; 765; 765; 765; 765; 762; 765; 765; 765; 765; 762; 762; 765; 765; 765; 765; 765; 765; 765; 765; 765; 765; 765; 765; 765; 765; 765; 765; 765; 765; 765; 765; 765; 765; 765; 765; 765; 765; 765; 765; 765; 765; 765; 765; 765; 765; 765; 765; 765; 765; 765; 765; 765; 765; 762; 762; 765; 765; 765; 762; 765; 765; 765; 765; 765; 765; 765; 765; 765; 765; 765; 762; 765; 762; 762; 765; 765; 765; 765; 765; 765; 765; 765
 765; 765; 765; 765; 765; 765; 765; 765; 762; 762; 762; 762; 765; 765; 765; 762; 765; 762; 762; 765; 765; 765; 765; 762; 765; 765; 765; 765; 765; 765; 765; 765; 765; 765; 765; 765; 765; 765; 765; 765; 765; 765; 765; 765; 765; 765; 765; 765; 765; 765; 765; 765; 765; 765; 765; 765; 765; 765; 765; 765; 765; 765; 765; 765; 765; 765; 765; 765; 765; 765; 765; 765; 765; 762; 765; 765; 762; 762; 765; 765; 765; 765; 765; 765; 765; 762; 765; 762; 765; 765; 765; 765; 765; 765; 765; 765; 765; 765; 765; 765
 765; 765; 765; 765; 765; 765; 765; 765; 765; 765; 765; 762; 765; 765; 762; 765; 765; 765; 765; 765; 762; 762; 765; 765; 762; 765; 765; 765; 765; 765; 765; 765; 765; 765; 765; 765; 765; 765; 765; 765; 765; 765; 765; 765; 765; 765; 765; 765; 765; 765; 765; 765; 765; 765; 765; 765; 765; 765; 765; 765; 765; 765; 765; 765; 765; 765; 765; 765; 765; 765; 765; 765; 765; 765; 762; 762; 765; 765; 762; 765; 762; 765; 765; 762; 765; 765; 762; 765; 765; 765; 765; 765; 765; 765; 765; 765; 765; 765; 765; 765
 765; 765; 765; 765; 765; 765; 762; 765; 765; 765; 765; 765; 762; 765; 765; 762; 765; 765; 765; 765; 765; 765; 765; 765; 765; 765; 765; 765; 765; 765; 765; 765; 765; 765; 765; 765; 765; 765; 765; 765; 765; 765; 765; 765; 765; 765; 765; 765; 765; 765; 765; 765; 765; 765; 765; 765; 765; 765; 765; 765; 765; 765; 765; 765; 765; 765; 765; 765; 765; 765; 765; 765; 765; 765; 765; 765; 765; 765; 765; 762; 765; 765; 765; 762; 765; 765; 765; 765; 765; 765; 765; 765; 765; 765; 765; 765; 765; 765; 765; 765
 765; 765; 765; 765; 765; 762; 765; 765; 765; 762; 765; 762; 765; 765; 765; 765; 765; 765; 765; 765; 762; 765; 765; 765; 765; 765; 765; 765; 765; 765; 765; 765; 765; 765; 765; 765; 765; 765; 765; 765; 765; 765; 765; 765; 765; 765; 765; 765; 765; 765; 765; 765; 765; 765; 765; 765; 765; 765; 765; 765; 765; 765; 765; 765; 765; 765; 765; 765; 765; 765; 765; 765; 765; 765; 765; 765; 765; 765; 765; 765; 765; 765; 765; 765; 765; 765; 765; 765; 765; 765; 765; 762; 762; 765; 765; 765; 765; 765; 765; 765
 765; 765; 765; 765; 765; 765; 765; 765; 765; 765; 765; 762; 765; 765; 765; 765; 765; 765; 762; 765; 765; 765; 765; 765; 765; 765; 765; 765; 765; 765; 765; 765; 765; 765; 765; 765; 765; 765; 765; 765; 765; 765; 765; 765; 765; 765; 765; 765; 765; 765; 765; 765; 765; 765; 765; 765; 765; 765; 765; 765; 765; 765; 765; 765; 765; 765; 765; 765; 765; 765; 765; 765; 765; 765; 765; 765; 765; 765; 765; 765; 765; 765; 765; 765; 765; 762; 765; 762; 765; 765; 765; 762; 762; 765; 765; 765; 765; 765; 765; 765
 765; 765; 765; 765; 765; 765; 765; 765; 765; 765; 762; 765; 765; 765; 762; 765; 765; 765; 765; 765; 765; 765; 765; 765; 765; 765; 765; 765; 765; 765; 765; 765; 765; 765; 765; 765; 765; 765; 765; 765; 765; 765; 765; 765; 765; 765; 765; 765; 765; 765; 765; 765; 765; 765; 765; 765; 765; 765; 765; 765; 765; 765; 765; 765; 765; 765; 765; 765; 765; 765; 765; 765; 765; 765; 765; 765; 765; 765; 765; 765; 765; 765; 765; 765; 765; 765; 762; 765; 762; 762; 765; 765; 765; 765; 765; 765; 765; 765; 765; 765
 765; 765; 765; 765; 765; 765; 765; 765; 765; 765; 765; 765; 765; 765; 765; 765; 765; 765; 765; 765; 765; 765; 765; 765; 765; 765; 765; 765; 765; 765; 765; 765; 765; 765; 765; 765; 765; 765; 765; 765; 765; 765; 765; 765; 765; 765; 765; 765; 765; 765; 765; 765; 765; 765; 765; 765; 765; 765; 765; 765; 765; 765; 765; 765; 765; 765; 765; 765; 765; 765; 765; 765; 765; 765; 765; 765; 765; 765; 765; 765; 765; 765; 765; 765; 765; 765; 765; 765; 762; 765; 762; 762; 765; 765; 762; 765; 762; 765; 765; 765
 765; 765; 765; 765; 765; 765; 765; 765; 765; 762; 765; 765; 765; 765; 765; 765; 765; 765; 765; 765; 765; 765; 765; 765; 765; 765; 765; 765; 765; 765; 765; 765; 765; 765; 765; 765; 765; 765; 765; 765; 765; 765; 765; 765; 765; 765; 765; 765; 765; 765; 765; 765; 765; 765; 765; 765; 765; 765; 765; 765; 765; 765; 765; 765; 765; 765; 765; 765; 765; 765; 765; 765; 765; 765; 765; 765; 765; 765; 765; 765; 765; 765; 765; 765; 765; 765; 765; 765; 765; 765; 765; 765; 762; 765; 765; 765; 765; 765; 765; 765
 765; 765; 765; 765; 765; 762; 765; 765; 765; 765; 765; 765; 765; 765; 765; 765; 765; 765; 765; 765; 765; 765; 765; 765; 765; 765; 765; 765; 765; 765; 765; 765; 765; 765; 765; 765; 765; 765; 765; 765; 765; 765; 765; 765; 765; 765; 765; 765; 765; 765; 765; 765; 765; 765; 765; 765; 765; 765; 765; 765; 765; 765; 765; 765; 765; 765; 765; 765; 765; 765; 765; 765; 765; 765; 765; 765; 765; 765; 765; 765; 765; 765; 765; 765; 765; 765; 765; 765; 765; 765; 762; 765; 765; 762; 765; 765; 765; 762; 765; 765
 765; 765; 765; 765; 765; 765; 765; 762; 765; 765; 765; 765; 765; 765; 765; 765; 765; 765; 765; 765; 765; 765; 765; 765; 765; 765; 765; 765; 765; 765; 765; 765; 765; 765; 765; 765; 765; 765; 765; 765; 765; 765; 765; 765; 765; 765; 765; 765; 765; 765; 765; 765; 765; 765; 765; 765; 765; 765; 765; 765; 765; 765; 765; 765; 765; 765; 765; 765; 765; 765; 765; 765; 765; 765; 765; 765; 765; 765; 765; 765; 765; 765; 765; 765; 765; 765; 765; 765; 765; 765; 765; 765; 765; 765; 762; 765; 765; 762; 765; 765
 765; 762; 765; 765; 762; 765; 765; 765; 765; 765; 765; 765; 765; 765; 765; 765; 765; 765; 765; 765; 765; 765; 765; 765; 765; 765; 765; 765; 765; 765; 765; 765; 765; 765; 765; 765; 765; 765; 765; 765; 765; 765; 765; 765; 765; 765; 765; 765; 765; 765; 765; 765; 765; 765; 765; 765; 765; 765; 765; 765; 765; 765; 765; 765; 765; 765; 765; 765; 765; 765; 765; 765; 765; 765; 765; 765; 765; 765; 765; 765; 765; 765; 765; 765; 765; 765; 765; 765; 765; 765; 765; 765; 765; 765; 765; 765; 765; 765; 765; 765
 765; 765; 765; 765; 765; 765; 765; 765; 765; 765; 765; 765; 765; 765; 765; 765; 765; 765; 765; 765; 765; 765; 765; 765; 765; 765; 765; 765; 765; 765; 765; 765; 765; 765; 765; 765; 765; 765; 765; 765; 765; 765; 765; 765; 765; 765; 765; 765; 765; 765; 765; 765; 765; 765; 765; 765; 765; 765; 765; 765; 765; 765; 765; 765; 765; 765; 765; 765; 765; 765; 765; 765; 765; 765; 765; 765; 765; 765; 765; 765; 765; 765; 765; 765; 765; 765; 765; 765; 765; 765; 765; 765; 765; 765; 765; 765; 765; 765; 765; 765
 765; 765; 765; 765; 765; 765; 765; 765; 765; 765; 765; 765; 765; 765; 765; 765; 765; 765; 765; 765; 765; 765; 765; 765; 765; 765; 765; 765; 765; 765; 765; 765; 765; 765; 765; 765; 765; 765; 765; 765; 765; 765; 765; 765; 765; 765; 765; 765; 765; 765; 765; 765; 765; 765; 765; 765; 765; 765; 765; 765; 765; 765; 765; 765; 765; 765; 765; 765; 765; 765; 765; 765; 765; 765; 765; 765; 765; 765; 765; 765; 765; 765; 765; 765; 765; 765; 765; 765; 765; 765; 765; 765; 765; 765; 765; 765; 765; 765; 765; 765
