     0.0     0.0
     0.0    99.7
    99.8     0.0
    99.8    99.7
    50.0    50.5
    25.0    51.1
    74.0    51.1
    50.0    73.7
    49.3    24.8
    74.3    39.3
    62.1    27.2
    61.1    70.4
    71.3    62.5
    29.7    61.3
    38.6    73.1
    37.4    26.0
    27.2    37.5